{
    "KPlugin": {
        "Authors": [
            {
                "Email": "notmart@gmail.com",
                "Name": "Marco Martin",
                "Name[az]": "Marco Martin",
                "Name[bg]": "Marco Martin",
                "Name[ca@valencia]": "Marco Martin",
                "Name[ca]": "Marco Martin",
                "Name[cs]": "Marco Martin",
                "Name[en_GB]": "Marco Martin",
                "Name[es]": "Marco Martin",
                "Name[eu]": "Marco Martin",
                "Name[fi]": "Marco Martin",
                "Name[fr]": "Marco Martin",
                "Name[ia]": "Marco Martin",
                "Name[id]": "Marco Martin",
                "Name[it]": "Marco Martin",
                "Name[ka]": "Marco Martin",
                "Name[ko]": "Marco Martin",
                "Name[nl]": "Marco Martin",
                "Name[nn]": "Marco Martin",
                "Name[pl]": "Marco Martin",
                "Name[pt]": "Marco Martin",
                "Name[pt_BR]": "Marco Martin",
                "Name[ru]": "Marco Martin",
                "Name[sl]": "Marco Martin",
                "Name[sv]": "Marco Martin",
                "Name[tr]": "Marco Martin",
                "Name[uk]": "Marco Martin",
                "Name[vi]": "Marco Martin",
                "Name[x-test]": "xxMarco Martinxx",
                "Name[zh_CN]": "Marco Martin"
            }
        ],
        "Category": "Examples",
        "Description": "The Same game QML Qt demo converted as plasmoid",
        "Description[az]": "Same oyunu QML-də Plasma vidjeti formasında",
        "Description[bg]": "Демо на Same game QML Qt преобразувано като плазмоид",
        "Description[ca@valencia]": "La demo Qt en QML del joc Same convertit com a plasmoide",
        "Description[ca]": "La demo Qt en QML del joc Same convertit com a plasmoide",
        "Description[en_GB]": "The Same game QML Qt demo converted as plasmoid",
        "Description[es]": "La demostración del juego «iguales» de Qt en QML convertida en plasmoide",
        "Description[eu]": "Same jokoaren QML Qt erakusgaia plasmoide gisa bihurtua",
        "Description[fi]": "Qt:n Sama-pelin demo sovelmaksi muunnettuna",
        "Description[fr]": "La démonstration « QML » du jeu « Same » convertie en module graphique",
        "Description[ia]": "Le Mesme Joco QML. Demo de QT convertite in plasmoid",
        "Description[id]": "Demo QML Qt game yang sama dikonversi sebagai plasmoid",
        "Description[it]": "La dimostrazione QML Qt del gioco Same convertito in plasmoide",
        "Description[ko]": "Plasmoid로 변환된 같은 것 맞추기 QML Qt 데모",
        "Description[nl]": "De demo van QML Qt van 'Zelfde spel' geconverteerd als plasmoid",
        "Description[nn]": "Same game QML Qt-demo gjort om til plasmoide",
        "Description[pl]": "Demo Qt Tej samej gry przekształcone na plazmoid",
        "Description[pt]": "A demonstração do jogo 'Same Game' em QML (Qt) convertida para um plasmóide",
        "Description[sl]": "Demo iste igre v QML Qt predelano kot plasmoid",
        "Description[sv]": "Samegame QML Qt-demonstrationen konverterad till Plasmoid",
        "Description[tr]": "Same oyunu QML Qt demosu, Plasmoid olarak",
        "Description[uk]": "Плазмоїд-демонстрація тієї самої гри на основі QML",
        "Description[vi]": "Chương trình minh hoạ cho Qt, Same game, viết bằng QML, chuyển dạng thành plasmoid",
        "Description[x-test]": "xxThe Same game QML Qt demo converted as plasmoidxx",
        "Description[zh_CN]": "找重游戏 的 QML Qt 演示程序转换而来的小部件",
        "EnabledByDefault": true,
        "Icon": "applications-games",
        "Id": "org.kde.samegame-qml",
        "License": "GPL",
        "Name": "Same game (QML)",
        "Name[az]": "Same oyunu (QML)",
        "Name[bg]": "Same game (QML)",
        "Name[ca@valencia]": "Joc Same (QML)",
        "Name[ca]": "Joc Same (QML)",
        "Name[en_GB]": "Same game (QML)",
        "Name[es]": "Juego iguales (QML)",
        "Name[eu]": "Same jokoa (QML)",
        "Name[fi]": "Sama-peli (QML)",
        "Name[fr]": "Même jeu (QML)",
        "Name[ia]": "Mesme Joco (QML)",
        "Name[id]": "Same game (QML)",
        "Name[it]": "Same game (QML)",
        "Name[ka]": "იგივე თამაში (QML)",
        "Name[ko]": "같은 것 맞추기(QML)",
        "Name[nl]": "Zelfde spel (QML)",
        "Name[nn]": "Same game (QML)",
        "Name[pl]": "Ta sama gra (QML)",
        "Name[pt]": "Jogo de peças iguais (QML)",
        "Name[pt_BR]": "Mesmo jogo (QML)",
        "Name[sl]": "Ista igra (QML)",
        "Name[sv]": "Samegame (QML)",
        "Name[tr]": "Aynı oyun (QML)",
        "Name[uk]": "Та сама гра (QML)",
        "Name[vi]": "Trò chơi Same game (QML)",
        "Name[x-test]": "xxSame game (QML)xx",
        "Name[zh_CN]": "找重游戏 (QML)",
        "ServiceTypes": [
            "Plasma/Applet"
        ],
        "Version": "1.0",
        "Website": "https://plasma.kde.org/"
    },
    "X-Plasma-API": "declarativeappletscript",
    "X-Plasma-MainScript": "qml/samegame.qml"
}
