{
    "KPlugin": {
        "Authors": [
            {
                "Email": "sebas@kde.org",
                "Name": "Sebastian Kügler",
                "Name[az]": "Sebastian Kügler",
                "Name[bg]": "Sebastian Kügler",
                "Name[ca@valencia]": "Sebastian Kügler",
                "Name[ca]": "Sebastian Kügler",
                "Name[cs]": "Sebastian Kügler",
                "Name[en_GB]": "Sebastian Kügler",
                "Name[es]": "Sebastian Kügler",
                "Name[eu]": "Sebastian Kügler",
                "Name[fi]": "Sebastian Kügler",
                "Name[fr]": "Sebastian Kügler",
                "Name[ia]": "Sebastian Kügler",
                "Name[id]": "Sebastian Kügler",
                "Name[it]": "Sebastian Kügler",
                "Name[ka]": "Sebastian Kügler",
                "Name[ko]": "Sebastian Kügler",
                "Name[nl]": "Sebastian Kügler",
                "Name[nn]": "Sebastian Kügler",
                "Name[pl]": "Sebastian Kügler",
                "Name[pt]": "Sebastian Kügler",
                "Name[pt_BR]": "Sebastian Kügler",
                "Name[ru]": "Sebastian Kügler",
                "Name[sl]": "Sebastian Kügler",
                "Name[sv]": "Sebastian Kügler",
                "Name[tr]": "Sebastian Kügler",
                "Name[uk]": "Sebastian Kügler",
                "Name[vi]": "Sebastian Kügler",
                "Name[x-test]": "xxSebastian Küglerxx",
                "Name[zh_CN]": "Sebastian Kügler"
            }
        ],
        "Category": "Development Tools",
        "Icon": "plasma",
        "Id": "org.kde.example.testcomponents",
        "License": "GPLv2+",
        "Name": "Components Test",
        "Name[az]": "Komponentlərin testləri",
        "Name[bg]": "Тест на компоненти",
        "Name[ca@valencia]": "Prova de components",
        "Name[ca]": "Prova de components",
        "Name[en_GB]": "Components Test",
        "Name[es]": "Prueba de componentes",
        "Name[eu]": "Osagaien proba",
        "Name[fi]": "Osatesti",
        "Name[fr]": "Test de composants",
        "Name[ia]": "Essayo de componentes(Components)",
        "Name[id]": "Uji Komponent",
        "Name[it]": "Prova dei componenti",
        "Name[ka]": "კომპონენტების ტესტი",
        "Name[ko]": "구성 요소 테스트",
        "Name[nl]": "Test van componenten",
        "Name[nn]": "Komponenttest",
        "Name[pl]": "Próba składników",
        "Name[pt]": "Teste de Componentes",
        "Name[pt_BR]": "Teste de componentes",
        "Name[sl]": "Preizkus komponent",
        "Name[sv]": "Komponenttest",
        "Name[tr]": "Bileşenler Sınaması",
        "Name[uk]": "Тестування компонентів",
        "Name[vi]": "Kiểm thử các thành phần",
        "Name[x-test]": "xxComponents Testxx",
        "Name[zh_CN]": "组件测试",
        "ServiceTypes": [
            "Plasma/Applet"
        ],
        "Version": "",
        "Website": ""
    },
    "Keywords": "",
    "X-KDE-ParentApp": "",
    "X-Plasma-API": "declarativeappletscript",
    "X-Plasma-MainScript": "ui/testcomponents.qml"
}
